A Fun Look Back – Rob’s Blog
…
From the chart, it looks like there was a good amount of variance in 2020 following the 2020 global pandemic and the 2022 market downturn on the back of 40-year-high inflation that prompted the Federal Reserve to raise interest rates at the fasted rate in history. Next, we will use the cummax() and cummin() functions for each symbol to discover the highest and lowest future prices for each date.

stock_prices %>% 
  arrange(symbol, desc(date)) %>% 
  group_by(symbol) %>% 
  mutate(highest_future = cummax(close),
         lowest_future = cummin(close))

# A tibble: 8,792 × 5
# Groups:   symbol [7]
   symbol date       close highest_future lowest_future
   <chr>  <date>     <dbl>          <dbl>         <dbl>
 1 AAPL   2024-12-26  259.           259.          259.
 2 AAPL   2024-12-24  258.           259.          258.
 3 AAPL   2024-12-23  255.           259.          255.
 4 AAPL   2024-12-20  254.           259.          254.
 5 AAPL   2024-12-19  250.           259.          250.
 6 AAPL   2024-12-18  248.           259.          248.
 7 AAPL   2024-12-17  253.           259.          248.
 8 AAPL   2024-12-16  251.           259.          248.
 9 AAPL   2024-12-13  248.           259.          248.
10 AAPL   2024-12-12  248.           259.          248.
# ℹ 8,782 more rows
…
